{
    "KPlugin": {
        "Authors": [
            {
                "Email": "shawn.starr@rogers.com",
                "Name": "Shawn Starr",
                "Name[ar]": "Shawn Starr",
                "Name[az]": "Shawn Starr",
                "Name[ca]": "Shawn Starr",
                "Name[es]": "Shawn Starr",
                "Name[fr]": "Shawn Starr",
                "Name[hu]": "Shawn Starr",
                "Name[ia]": "Shawn Starr",
                "Name[it]": "Shawn Starr",
                "Name[lt]": "Shawn Starr",
                "Name[nl]": "Shawn Starr",
                "Name[nn]": "Shawn Starr",
                "Name[pl]": "Shawn Starr",
                "Name[pt_BR]": "Shawn Starr",
                "Name[ru]": "Shawn Starr",
                "Name[sl]": "Shawn Starr",
                "Name[sv]": "Shawn Starr",
                "Name[uk]": "Shawn Starr",
                "Name[vi]": "Shawn Starr",
                "Name[x-test]": "xxShawn Starrxx",
                "Name[zh_CN]": "Shawn Starr"
            }
        ],
        "Category": "",
        "Description": "Weather data from multiple online sources",
        "Description[ar]": "بيانات الطقس من عدّة مصادر على الإنترنت",
        "Description[az]": "İntertetdəki müxtəlif mənbələrdən hava haqqında məlumat",
        "Description[ca]": "Dades meteorològiques de múltiples fonts en línia",
        "Description[es]": "Datos meteorológicos desde múltiples fuentes.",
        "Description[fr]": "Données météorologiques provenant de sources multiples en ligne",
        "Description[hu]": "Időjárás-jelentés több forrásból",
        "Description[ia]": "Datos meteorologic ex multiple fontes in linea",
        "Description[it]": "Dati meteorologici da varie fonti in rete",
        "Description[lt]": "Orų duomenys iš įvairių internetinių šaltinių",
        "Description[nl]": "Weergegevens voor meervoudige online bronnen",
        "Description[nn]": "Vêrdata frå ulike nettkjelder",
        "Description[pl]": "Dane pogodowe z wielu internetowych źródeł",
        "Description[pt_BR]": "Dados meteorológicos de múltiplas fontes online",
        "Description[ru]": "Информация о погоде из разных источников в Интернете",
        "Description[sl]": "Podatki o vremenu iz več spletnih virov",
        "Description[sv]": "Väderdata från flera olika nättjänster",
        "Description[uk]": "Дані щодо погоди з декількох мережевих джерел",
        "Description[vi]": "Dữ liệu thời tiết từ nhiều nguồn trực tuyến",
        "Description[x-test]": "xxWeather data from multiple online sourcesxx",
        "Description[zh_CN]": "多个在线信息源提供的天气数据",
        "Icon": "weather-clear",
        "Id": "weather",
        "License": "GPLv2+",
        "Name": "Weather",
        "Name[ar]": "الطقس",
        "Name[az]": "Hava",
        "Name[be@latin]": "Nadvorje",
        "Name[bg]": "Метеорологично време",
        "Name[bn]": "আবহাওয়া",
        "Name[bn_IN]": "আবহাওয়া",
        "Name[bs]": "Vrijeme",
        "Name[ca@valencia]": "Meteorologia",
        "Name[ca]": "Meteorologia",
        "Name[cs]": "Počasí",
        "Name[da]": "Vejr",
        "Name[de]": "Wetter",
        "Name[el]": "Καιρός",
        "Name[en_GB]": "Weather",
        "Name[eo]": "Vetero",
        "Name[es]": "Tiempo meteorológico",
        "Name[et]": "Ilmateade",
        "Name[eu]": "Eguraldia",
        "Name[fi]": "Sää",
        "Name[fr]": "Météo",
        "Name[fy]": "It Waar",
        "Name[ga]": "Aimsir",
        "Name[gl]": "O tempo",
        "Name[gu]": "હવામાન",
        "Name[he]": "מזג אוויר",
        "Name[hi]": "मौसम",
        "Name[hne]": "मौसम",
        "Name[hr]": "Vrijeme",
        "Name[hsb]": "Wjedro",
        "Name[hu]": "Időjárás",
        "Name[ia]": "Tempore meteorologic",
        "Name[id]": "Cuaca",
        "Name[is]": "Veður",
        "Name[it]": "Tempo",
        "Name[ja]": "気象",
        "Name[kk]": "Ауа райы",
        "Name[km]": "អាកាសធាតុ",
        "Name[kn]": "ಹವಾಮಾನ",
        "Name[ko]": "날씨",
        "Name[ku]": "Hewa",
        "Name[lt]": "Orai",
        "Name[lv]": "Laikapstākļi",
        "Name[mai]": "मौसम",
        "Name[mk]": "Време",
        "Name[ml]": "കാലാവസ്ഥ",
        "Name[mr]": "हवामान",
        "Name[nb]": "Været",
        "Name[nds]": "Weder",
        "Name[nl]": "Het weer",
        "Name[nn]": "Vêr",
        "Name[or]": "ପାଣିପାଗ",
        "Name[pa]": "ਮੌਸਮ",
        "Name[pl]": "Pogoda",
        "Name[pt]": "Meteorologia",
        "Name[pt_BR]": "Meteorologia",
        "Name[ro]": "Vremea",
        "Name[ru]": "Погода",
        "Name[si]": "කාලගුණය",
        "Name[sk]": "Počasie",
        "Name[sl]": "Vreme",
        "Name[sr@ijekavian]": "време",
        "Name[sr@ijekavianlatin]": "vreme",
        "Name[sr@latin]": "vreme",
        "Name[sr]": "време",
        "Name[sv]": "Väder",
        "Name[ta]": "வானிலை ",
        "Name[te]": "వాతావరణము",
        "Name[tg]": "Обу Ҳаво",
        "Name[th]": "พยากรณ์อากาศ",
        "Name[tr]": "Hava Durumu",
        "Name[ug]": "ھاۋا رايى",
        "Name[uk]": "Погода",
        "Name[vi]": "Thời tiết",
        "Name[wa]": "Meteyo",
        "Name[x-test]": "xxWeatherxx",
        "Name[zh_CN]": "天气",
        "Name[zh_TW]": "天氣",
        "Website": "https://www.kde.org"
    }
}
