{
    "KPlugin": {
        "Authors": [
            {
                "Email": "alexander.lohnau@gmx.de",
                "Name": "Alexander Lohnau",
                "Name[ar]": "Alexander Lohnau",
                "Name[az]": "Alexander Lohnau",
                "Name[ca]": "Alexander Lohnau",
                "Name[es]": "Alexander Lohnau",
                "Name[fr]": "Alexander Lohnau",
                "Name[hu]": "Alexander Lohnau",
                "Name[ia]": "Alexander Lohnau",
                "Name[nl]": "Alexander Lohnau",
                "Name[ru]": "Alexander Lohnau",
                "Name[sl]": "Alexander Lohnau",
                "Name[sv]": "Alexander Lohnau",
                "Name[uk]": "Alexander Lohnau",
                "Name[x-test]": "xxAlexander Lohnauxx"
            }
        ],
        "Description": "Shows help information about runners when typing \"?\" or \"help\"",
        "Description[ar]": "تعرض معلومات المساعدة عن المشغلات عن كتابة \"؟\" أوس \"مساعدة\"",
        "Description[az]": "\"?\" və ya \"help\" yazdıqda KRunner haqqında məlumatı göstərir",
        "Description[ca]": "Mostra informació d'ajuda quan als executors en teclejar «?» o «ajuda»",
        "Description[es]": "Muestra información de ayuda sobre los lanzadores cuando se escribe «?» o «ayuda»",
        "Description[fr]": "Affiche des informations d'aide sur les lanceurs en saisissant « ? » ou « aide ».",
        "Description[hu]": "Súgóinformációk megjelenítése az indítókról „?” vagy „súgó” gépelésekor",
        "Description[ia]": "Monstra information de adjuta re executores quando on typa \"?\" o \"help\"",
        "Description[nl]": "Toont help-informatie over runners bij typen van \"?\" of \"help\"",
        "Description[sl]": "Prikaži informacije za pomoč o zagonih kadar vtipkate \"?\" ali \"help\"",
        "Description[sv]": "Visar hjälpinformation om körprogram när \"?\" eller \"hjälp\" skrivs in",
        "Description[uk]": "Показує довідкові відомості щодо засобів запуску при введенні «?» або «help»",
        "Description[x-test]": "xxShows help information about runners when typing \"?\" or \"help\"xx",
        "EnabledByDefault": true,
        "Icon": "help-contextual",
        "Name": "Help Runner",
        "Name[ar]": "مساعدة المشغّل",
        "Name[az]": "KRunner köməyi",
        "Name[ca]": "Executor d'ajuda",
        "Name[es]": "Ayuda sobre lanzador",
        "Name[fr]": "Lanceur d'aide",
        "Name[hu]": "Indítósúgó",
        "Name[ia]": "Executor de adjuta",
        "Name[nl]": "Help van Runner",
        "Name[sl]": "Pomoč za Runner",
        "Name[sv]": "Hjälp om Kör program",
        "Name[uk]": "Засіб надання довідки",
        "Name[x-test]": "xxHelp Runnerxx",
        "ServiceTypes": [
            "Plasma/Runner"
        ]
    }
}
