{
    "KPlugin": {
        "Description": "XML Data from the British Broadcasting Corporation",
        "Description[ar]": "بيانات XML من هيئة الإذاعة البريطانية ",
        "Description[az]": "Britaniya Yayım Korporasiyasının XML formatında məlumatları",
        "Description[ca]": "Dades XML de la British Broadcasting Corporation",
        "Description[es]": "Datos XML de la British Broadcasting Corporation",
        "Description[fr]": "Données « XML » de la British Broadcasting Corporation",
        "Description[hu]": "XML-adatok a British Broadcasting Corporationtől",
        "Description[ia]": "Datos XML ex le British Broadcasting Corporation",
        "Description[it]": "Dati XML dalla British Broadcasting Corporation",
        "Description[lt]": "XML duomenys iš BBC (British Broadcasting Corporation)",
        "Description[nl]": "XML-gegevens van de British Broadcasting Corporation",
        "Description[nn]": "XML-data frå British Broadcasting Corporation",
        "Description[pl]": "Dane XML z British Broadcasting Corporation",
        "Description[pt_BR]": "Dados em XML da BBC (British Broadcasting Corporation)",
        "Description[ru]": "Данные в формате XML от Британской вещательной корпорации",
        "Description[sl]": "XML podatki od British Broadcasting Corporation",
        "Description[sv]": "XML-data från British Broadcasting Corporation",
        "Description[uk]": "Дані XML від BBC",
        "Description[vi]": "Dữ liệu XML từ Hiệp hội Phát thanh truyền hình Anh quốc (BBC)",
        "Description[x-test]": "xxXML Data from the British Broadcasting Corporationxx",
        "Description[zh_CN]": "BBC 提供的 XML 数据",
        "Icon": "noneyet",
        "Id": "bbcukmet",
        "Name": "BBC Weather",
        "Name[ar]": "الطقس بي بي سي",
        "Name[az]": "BBC Hava Məlumatı",
        "Name[ca@valencia]": "BBC Weather",
        "Name[ca]": "BBC Weather",
        "Name[cs]": "BBC Weather",
        "Name[da]": "BBC Weather",
        "Name[de]": "BBC-Wetterdienst",
        "Name[en_GB]": "BBC Weather",
        "Name[es]": "BBC Weather",
        "Name[et]": "BBC ilmateade",
        "Name[eu]": "BBC Weather",
        "Name[fi]": "BBC Weather",
        "Name[fr]": "Météo de la BBC",
        "Name[gl]": "BBC Weather",
        "Name[hi]": "बीबीसी मौसम",
        "Name[hu]": "BBC Weather",
        "Name[ia]": "BBC Weather",
        "Name[id]": "Cuaca BBC",
        "Name[it]": "BBC Weather",
        "Name[ko]": "BBC 날씨",
        "Name[lt]": "BBC orai",
        "Name[lv]": "BBC laikapstākļi",
        "Name[ml]": "ബിബിസി കാലാവസ്ഥ",
        "Name[nl]": "BBC Weather",
        "Name[nn]": "BBC Weather",
        "Name[pa]": "BBC ਮੌਸਮ",
        "Name[pl]": "Pogoda BBC",
        "Name[pt]": "Meteorologia da BBC",
        "Name[pt_BR]": "BBC Weather",
        "Name[ro]": "Vremea BBC",
        "Name[ru]": "Погода от Би-би-си",
        "Name[sk]": "BBC Weather",
        "Name[sl]": "BBC Vreme",
        "Name[sv]": "BBC Weather",
        "Name[ta]": "BBC வானிலை",
        "Name[tg]": "Обу ҳавои BBC",
        "Name[tr]": "BBC Hava Durumu",
        "Name[uk]": "Погода BBC",
        "Name[vi]": "Ban Thời tiết BBC",
        "Name[x-test]": "xxBBC Weatherxx",
        "Name[zh_CN]": "BBC 天气",
        "Name[zh_TW]": "BBC 天氣"
    },
    "X-KDE-ParentApp": "weatherengine"
}
