{
    "KPlugin": {
        "Authors": [
            {
                "Email": "wilderkde@gmail.com",
                "Name": "Viranch Mehta, Jacopo De Simoi",
                "Name[ar]": "Viranch Mehta, Jacopo De Simoi",
                "Name[az]": "Viranch Mehta, Jacopo De Simoi",
                "Name[ca]": "Viranch Mehta, Jacopo De Simoi",
                "Name[es]": "Viranch Mehta, Jacopo De Simoi",
                "Name[fr]": "Viranch Mehta, Jacopo De Simoi",
                "Name[hu]": "Viranch Mehta, Jacopo De Simoi",
                "Name[ia]": "Viranch Mehta, Jacopo De Simoi",
                "Name[it]": "Viranch Mehta, Jacopo De Simoi",
                "Name[lt]": "Viranch Mehta, Jacopo De Simoi",
                "Name[nl]": "Viranch Mehta, Jacopo De Simoi",
                "Name[nn]": "Viranch Mehta, Jacopo De Simoi",
                "Name[pl]": "Viranch Mehta, Jacopo De Simoi",
                "Name[pt_BR]": "Viranch Mehta, Jacopo De Simoi",
                "Name[ru]": "Viranch Mehta, Jacopo De Simoi",
                "Name[sl]": "Viranch Mehta, Jacopo De Simoi",
                "Name[sv]": "Viranch Mehta",
                "Name[uk]": "Viranch Mehta, Jacopo De Simoi",
                "Name[vi]": "Viranch Mehta, Jacopo De Simoi",
                "Name[x-test]": "xxViranch Mehta, Jacopo De Simoixx",
                "Name[zh_CN]": "Viranch Mehta, Jacopo De Simoi"
            }
        ],
        "Category": "System Information",
        "Description": "Notifications and access for devices",
        "Description[ar]": "إخطارات ووصول الأجهزة",
        "Description[az]": "Cihazlar üçün bildirişlər və onlara giriş",
        "Description[ca]": "Notificacions i accés als dispositius",
        "Description[es]": "Notificaciones y accesos de dispositivos",
        "Description[fr]": "Notifications et accès aux périphériques",
        "Description[hu]": "Eszközök elérése, értesítő üzenetek kezelése",
        "Description[ia]": "Notificationes e accesso pro dispositivos",
        "Description[it]": "Notifiche e accesso per dispositivi",
        "Description[lt]": "Pranešimai apie įrenginius ir prieiga prie jų",
        "Description[nl]": "Meldingen en toegang voor apparaten",
        "Description[nn]": "Varsling og tilgang til einingar",
        "Description[pl]": "Powiadomienia i dostęp do urządzeń",
        "Description[pt_BR]": "Notificações e acesso aos dispositivos",
        "Description[ru]": "Уведомление о подключаемых устройствах и доступ к ним",
        "Description[sl]": "Obvestila in dostop do naprav",
        "Description[sv]": "Underrättelser och åtkomst av enheter",
        "Description[ta]": "புதிய சாதனங்களுக்கான அறிவிப்புகள் மற்றும் அணுகல்",
        "Description[uk]": "Сповіщення і доступ до пристроїв",
        "Description[vi]": "Thông báo và cách truy cập cho các thiết bị",
        "Description[x-test]": "xxNotifications and access for devicesxx",
        "Description[zh_CN]": "设备的通知和访问",
        "EnabledByDefault": true,
        "FormFactors": [
            "tablet",
            "desktop"
        ],
        "Icon": "device-notifier",
        "Id": "org.kde.plasma.devicenotifier",
        "License": "GPL-2.0+",
        "Name": "Disks & Devices",
        "Name[ar]": "الأجهزة والأقراص",
        "Name[ast]": "Discos y preseos",
        "Name[az]": "Disklər və Qurğular",
        "Name[ca]": "Discs i dispositius",
        "Name[cs]": "Disky & Zařízení",
        "Name[da]": "Diske og enheder",
        "Name[de]": "Datenträger & Geräte",
        "Name[en_GB]": "Disks & Devices",
        "Name[es]": "Discos y dispositivos",
        "Name[et]": "Kettad ja seadmed",
        "Name[eu]": "Diskoak eta gailuak",
        "Name[fi]": "Levyt ja laitteet",
        "Name[fr]": "Disques & périphériques",
        "Name[hi]": "डिस्क और उपकरण",
        "Name[hsb]": "Tačele a graty",
        "Name[hu]": "Lemezek és eszközök",
        "Name[ia]": "Discos & Dispositivos",
        "Name[id]": "Perangkat & Disk",
        "Name[it]": "Dischi e dispositivi",
        "Name[ko]": "디스크와 장치",
        "Name[lt]": "Diskai ir įrenginiai",
        "Name[ml]": "ഡിസ്കുകളും ഉപകരണങ്ങളും",
        "Name[nl]": "Schijven & apparaten",
        "Name[nn]": "Diskar og einingar",
        "Name[pa]": "ਡਿਸਕ ਤੇ ਡਿਵਾਈਸ",
        "Name[pl]": "Dyski i urządzenia",
        "Name[pt]": "Discos & Dispositivos",
        "Name[pt_BR]": "Discos e dispositivos",
        "Name[ro]": "Disc și dispozitive",
        "Name[ru]": "Диски и устройства",
        "Name[sk]": "Disky a zariadenia",
        "Name[sl]": "Diski in naprave",
        "Name[sv]": "Diskar och enheter",
        "Name[ta]": "வட்டுகளும் சாதனங்களும்",
        "Name[tg]": "Дискҳо ва дастгоҳҳо",
        "Name[tr]": "Diskler ve Cihazlar",
        "Name[uk]": "Диски і пристрої",
        "Name[vi]": "Đĩa & Thiết bị",
        "Name[x-test]": "xxDisks & Devicesxx",
        "Name[zh_CN]": "磁盘和设备",
        "ServiceTypes": [
            "Plasma/Applet"
        ],
        "Version": "1.0",
        "Website": "https://userbase.kde.org/Plasma/DeviceNotifier"
    },
    "X-Plasma-API": "declarativeappletscript",
    "X-Plasma-MainScript": "ui/devicenotifier.qml",
    "X-Plasma-NotificationArea": "true",
    "X-Plasma-NotificationAreaCategory": "Hardware",
    "X-Plasma-Provides": [
        "org.kde.plasma.removabledevices"
    ]
}
